…
``` r
cetesb_station_ids
#> # A tibble: 62 x 25
#>       id stationname initial_date BEN   CO    ERT   MP10  MP2.5 NO    NO2  
#>    <int> <chr>       <chr>        <chr> <chr> <chr> <chr> <chr> <chr> <chr>
#>  1    65 Mauá        01/01/1998   <NA>  <NA>  <NA>  <NA>  <NA>  <NA>  <NA> 
#>  2    66 Cubatão-V.… 01/01/1998   <NA>  <NA>  <NA>  <NA>  <NA>  <NA>  <NA> 
#>  3    67 Sorocaba    01/01/1998   <NA>  <NA>  <NA>  <NA>  <NA>  <NA>  <NA> 
#>  4    73 Congonhas   01/01/1998   no    yes   no    yes   yes   yes   yes  
#>  5    87 Cubatão-Ce… 01/01/1998   <NA>  <NA>  <NA>  <NA>  <NA>  <NA>  <NA> 
#>  6    88 S.José Cam… 01/01/1998   <NA>  <NA>  <NA>  <NA>  <NA>  <NA>  <NA> 
#>  7    89 Campinas-C… 01/01/1998   <NA>  <NA>  <NA>  <NA>  <NA>  <NA>  <NA> 
#>  8    91 Cerqueira … 01/01/1998   no    yes   no    yes   no    yes   yes  
#>  9    92 Diadema     01/01/1998   <NA>  <NA>  <NA>  <NA>  <NA>  <NA>  <NA> 
#> 10    95 Cid.Univer… 01/01/1998   no    hist  no    no    yes   yes   yes  
#> # … with 52 more rows, and 15 more variables: Nox <chr>, O3 <chr>, SO2 <chr>,
#> #   TOL <chr>, DV <chr>, DVG <chr>, PRESS <chr>, RADG <chr>, RADUV <chr>,
#> #   TEMP <chr>, UR <chr>, VV <chr>, address <chr>, lat <int>, long <int>
```
…
